animation{
  name = "deactivated",
  src_image = "entities/machinery.png",
  directions = {
    { x = 64, y = 64, frame_width = 16, frame_height = 16, origin_x = 8, origin_y = 13 },
  },
}
animation{
  name = "activated",
  src_image = "entities/machinery.png",
  directions = {
    { x = 96, y = 64, frame_width = 16, frame_height = 16, origin_x = 8, origin_y = 13 },
  },
}
