animation{
  name = "walking",
  src_image = "hero/rachel.png",
  frame_delay = 100,
  frame_to_loop_on = 0,
  directions = {
    { x = 96, y = 16, frame_width = 16, frame_height = 8, origin_x = 8, origin_y = 5, num_frames = 2, num_columns = 1 },
  },
}
